G04 #@! TF.FileFunction,Paste,Bot*
%FSLAX46Y46*%
G04 Gerber Fmt 4.6, Leading zero omitted, Abs format (unit mm)*
G04 Created by KiCad (PCBNEW 4.0.7) date 02/12/19 19:11:38*
%MOMM*%
%LPD*%
G01*
G04 APERTURE LIST*
%ADD10C,0.100000*%
%ADD11C,0.400000*%
%ADD12R,0.889000X0.635000*%
%ADD13R,0.200000X0.675000*%
%ADD14R,0.550000X0.500000*%
%ADD15R,0.500000X0.550000*%
%ADD16R,1.300000X1.000000*%
%ADD17R,1.000000X1.300000*%
%ADD18R,0.635000X0.889000*%
%ADD19R,0.700000X0.900000*%
%ADD20R,0.900000X0.700000*%
%ADD21R,0.540000X1.060000*%
%ADD22R,2.450000X2.950000*%
%ADD23R,1.050000X0.600000*%
%ADD24R,0.800000X6.000000*%
G04 APERTURE END LIST*
D10*
D11*
X56900000Y-171637500D02*
X56900000Y-171362500D01*
X56900000Y-172512500D02*
X56900000Y-172237500D01*
D12*
X30000000Y-124050000D03*
X30000000Y-122550000D03*
D13*
X57900000Y-171500000D03*
X57900000Y-172375000D03*
X55900000Y-171500000D03*
X55900000Y-172375000D03*
X56400000Y-172375000D03*
X57400000Y-172375000D03*
X57400000Y-171500000D03*
X56400000Y-171500000D03*
D12*
X67900000Y-164800000D03*
X67900000Y-163300000D03*
X75200000Y-171188000D03*
X75200000Y-169688000D03*
X78900000Y-166700000D03*
X78900000Y-165200000D03*
D14*
X51700000Y-138800000D03*
X51700000Y-139800000D03*
X53800000Y-141300000D03*
X53800000Y-140300000D03*
X53800000Y-137400000D03*
X53800000Y-138400000D03*
X51800000Y-135950000D03*
X51800000Y-136950000D03*
D15*
X56500000Y-134500000D03*
X55500000Y-134500000D03*
D14*
X53800000Y-135500000D03*
X53800000Y-134500000D03*
D15*
X60850000Y-132500000D03*
X59850000Y-132500000D03*
X59400000Y-134500000D03*
X58400000Y-134500000D03*
X62300000Y-134500000D03*
X61300000Y-134500000D03*
X66300000Y-134500000D03*
X65300000Y-134500000D03*
D16*
X75800000Y-177200000D03*
X75800000Y-175200000D03*
X62600000Y-160300000D03*
X62600000Y-162300000D03*
D17*
X67400000Y-157900000D03*
X69400000Y-157900000D03*
D16*
X80600000Y-153700000D03*
X80600000Y-151700000D03*
X78600000Y-153700000D03*
X78600000Y-151700000D03*
X76600000Y-148900000D03*
X76600000Y-146900000D03*
X78750000Y-148900000D03*
X78750000Y-146900000D03*
X63300000Y-153800000D03*
X63300000Y-151800000D03*
X77800000Y-134100000D03*
X77800000Y-136100000D03*
D17*
X72600000Y-142300000D03*
X70600000Y-142300000D03*
D16*
X35700000Y-142400000D03*
X35700000Y-144400000D03*
X68200000Y-153900000D03*
X68200000Y-151900000D03*
X70950000Y-175200000D03*
X70950000Y-177200000D03*
X77800000Y-175200000D03*
X77800000Y-177200000D03*
X81650000Y-159200000D03*
X81650000Y-161200000D03*
X33700000Y-142400000D03*
X33700000Y-144400000D03*
D12*
X73600000Y-171188000D03*
X73600000Y-169688000D03*
X46300000Y-124050000D03*
X46300000Y-122550000D03*
X33549999Y-114100000D03*
X33549999Y-112600000D03*
X46800000Y-114100000D03*
X46800000Y-112600000D03*
D18*
X69550000Y-169850000D03*
X68050000Y-169850000D03*
X69550000Y-168150000D03*
X68050000Y-168150000D03*
D12*
X64400000Y-160700000D03*
X64400000Y-162200000D03*
X66000000Y-160700000D03*
X66000000Y-162200000D03*
X77000000Y-162900000D03*
X77000000Y-161400000D03*
D18*
X68050000Y-171500000D03*
X69550000Y-171500000D03*
X74250000Y-161600000D03*
X72750000Y-161600000D03*
X69550000Y-166550000D03*
X68050000Y-166550000D03*
D12*
X72000000Y-171188000D03*
X72000000Y-169688000D03*
D18*
X67650000Y-159900000D03*
X69150000Y-159900000D03*
D12*
X66000000Y-166300000D03*
X66000000Y-164800000D03*
X77200000Y-166700000D03*
X77200000Y-165200000D03*
X79700000Y-159450000D03*
X79700000Y-160950000D03*
D18*
X74750000Y-166600000D03*
X73250000Y-166600000D03*
D12*
X78400000Y-170300000D03*
X78400000Y-168800000D03*
X76800000Y-170300000D03*
X76800000Y-168800000D03*
X64000000Y-170400000D03*
X64000000Y-168900000D03*
X65800000Y-170400000D03*
X65800000Y-168900000D03*
X74800000Y-153450000D03*
X74800000Y-151950000D03*
X59100000Y-142150000D03*
X59100000Y-140650000D03*
X76600000Y-153450000D03*
X76600000Y-151950000D03*
D18*
X52950000Y-151600000D03*
X54450000Y-151600000D03*
X57050000Y-150300000D03*
X58550000Y-150300000D03*
X65500000Y-136900000D03*
X64000000Y-136900000D03*
X58050000Y-144050000D03*
X56550000Y-144050000D03*
D12*
X60500000Y-142150000D03*
X60500000Y-140650000D03*
X64450000Y-148150000D03*
X64450000Y-146650000D03*
X74800000Y-148650000D03*
X74800000Y-147150000D03*
D18*
X64550000Y-140100000D03*
X63050000Y-140100000D03*
X61750000Y-146000000D03*
X60250000Y-146000000D03*
D12*
X65599999Y-142650000D03*
X65599999Y-144150000D03*
X71900000Y-138050000D03*
X71900000Y-136550000D03*
D18*
X72750000Y-144100000D03*
X71250000Y-144100000D03*
D12*
X75900000Y-134350000D03*
X75900000Y-135850000D03*
D18*
X72750000Y-145550000D03*
X71250000Y-145550000D03*
D12*
X70100000Y-138650000D03*
X70100000Y-140150000D03*
X64900000Y-153550000D03*
X64900000Y-152050000D03*
D18*
X69150000Y-135300000D03*
X70650000Y-135300000D03*
D12*
X70300000Y-153550000D03*
X70300000Y-152050000D03*
D18*
X40250000Y-148100000D03*
X41750000Y-148100000D03*
X38150000Y-148100000D03*
X36650000Y-148100000D03*
X32799999Y-148100000D03*
X31299999Y-148100000D03*
X28100000Y-148100000D03*
X29600000Y-148100000D03*
X40850000Y-157300000D03*
X39350000Y-157300000D03*
X28000000Y-157300000D03*
X29500000Y-157300000D03*
X24300000Y-150200000D03*
X25800000Y-150200000D03*
X36050000Y-157300000D03*
X37550000Y-157300000D03*
X32750000Y-157300000D03*
X31250000Y-157300000D03*
D12*
X34850000Y-148250000D03*
X34850000Y-146750000D03*
D18*
X28600000Y-152700000D03*
X30100000Y-152700000D03*
X74250000Y-160000000D03*
X72750000Y-160000000D03*
D12*
X64200000Y-166300000D03*
X64200000Y-164800000D03*
D18*
X58000000Y-136900000D03*
X59500000Y-136900000D03*
X68050000Y-173100000D03*
X69550000Y-173100000D03*
D19*
X100250000Y-184350000D03*
X100900000Y-182450000D03*
X99600000Y-182450000D03*
X92650000Y-184350000D03*
X93300000Y-182450000D03*
X92000000Y-182450000D03*
D20*
X85200000Y-179400000D03*
X87100000Y-180050000D03*
X87100000Y-178750000D03*
D19*
X92650000Y-174450000D03*
X92000000Y-176350000D03*
X93300000Y-176350000D03*
X100300000Y-174450000D03*
X99650000Y-176350000D03*
X100950000Y-176350000D03*
D20*
X107750000Y-179400000D03*
X105850000Y-178750000D03*
X105850000Y-180050000D03*
D21*
X96450000Y-174130000D03*
X96450000Y-176270000D03*
D22*
X30850000Y-184700000D03*
X30850000Y-187900000D03*
X33550000Y-187900000D03*
X33550000Y-184700000D03*
D23*
X50300000Y-177500000D03*
X53000000Y-176550000D03*
X53000000Y-177500000D03*
X53000000Y-178450000D03*
X50300000Y-178450000D03*
X50300000Y-176550000D03*
D24*
X60950000Y-47500000D03*
X57250000Y-47500000D03*
X35950000Y-47500000D03*
X32250000Y-47500000D03*
M02*
