(module LED_0805 (layer F.Cu) (tedit 5A2DAB76)
  (descr "Resistor SMD 0805, reflow soldering, Vishay (see dcrcw.pdf)")
  (tags "resistor 0805")
  (attr smd)
  (fp_text reference REF** (at 0 3.4 180) (layer F.SilkS)
    (effects (font (size 1 1) (thickness 0.15)))
  )
  (fp_text value LED_0805 (at 0 -2.9 180) (layer F.Fab)
    (effects (font (size 1 1) (thickness 0.15)))
  )
  (fp_circle (center -1.5 1.8) (end -1.627 1.8) (layer F.SilkS) (width 0.2032))
  (fp_line (start 0.9 1.9) (end -0.9 1.9) (layer F.SilkS) (width 0.2032))
  (fp_line (start -0.9 1.9) (end -0.9 -1.9) (layer F.SilkS) (width 0.2032))
  (fp_line (start -0.9 -1.9) (end 0.9 -1.9) (layer F.SilkS) (width 0.2032))
  (fp_line (start 0.9 -1.9) (end 0.9 1.9) (layer F.SilkS) (width 0.2032))
  (pad 2 smd rect (at 0 -1.1 90) (size 1.1 1.3) (layers F.Cu F.Paste F.Mask))
  (pad 1 smd rect (at 0 1.1 90) (size 1.1 1.3) (layers F.Cu F.Paste F.Mask))
  (model ${KIPRJMOD}/ScopefunPackages3D/LED_0805.wrl
    (at (xyz 0 0 0))
    (scale (xyz 0.3937 0.3937 0.3937))
    (rotate (xyz 0 0 0))
  )
)
